// Jest Snapshot v1, https://goo.gl/fbAQLP

exports[`renders Clock view correctly 1`] = `
<Connect(TaskClock)
  bootstrapped={true}
  handleTaskFinish={[Function]}
  routeToBreak={[Function]}
/>
`;

exports[`renders Debrief view correctly 1`] = `
<Connect(TaskDebrief)
  bootstrapped={true}
  routeToBreak={[Function]}
/>
`;

exports[`renders Finished view correctly 1`] = `
<Connect(TaskFinished)
  bootstrapped={true}
  history={
    Object {
      "action": "",
      "block": [MockFunction],
      "createHref": [MockFunction],
      "go": [MockFunction],
      "goBack": [MockFunction],
      "goForward": [MockFunction],
      "length": 0,
      "listen": [MockFunction],
      "location": Object {},
      "push": [MockFunction],
      "replace": [MockFunction],
    }
  }
  location={
    Object {
      "hash": "",
      "key": "",
      "pathname": "",
      "search": "",
      "state": Object {},
    }
  }
/>
`;
