// Jest Snapshot v1, https://goo.gl/fbAQLP

exports[`renders correctly 1`] = `
<Sheet
  handleClose={[MockFunction]}
  isOpen={true}
  items={
    Array [
      Object {
        "callback": [MockFunction],
        "id": "item-1",
        "label": "Item 1",
      },
      Object {
        "callback": [Function],
        "icon": "item-2-src",
        "id": "item-2",
        "label": "Item 2",
      },
    ]
  }
>
  <Transition
    appear={true}
    enter={true}
    exit={true}
    in={true}
    mountOnEnter={false}
    onEnter={[Function]}
    onEntered={[Function]}
    onEntering={[Function]}
    onExit={[Function]}
    onExited={[Function]}
    onExiting={[Function]}
    timeout={160}
    unmountOnExit={true}
  >
    <Portal>
      <Portal
        containerInfo={
          <div>
            <div
              class="sheet__overlay is-entering"
            >
              <div
                class="sheet__component is-entering"
              >
                <ul>
                  <li
                    class="sheet__item"
                    role="button"
                  >
                    <div>
                      Item 1
                    </div>
                  </li>
                  <li
                    class="sheet__item"
                    role="button"
                  >
                    <span
                      class="sheet__icon"
                    >
                      <img
                        alt="Item 2"
                        src="item-2-src"
                      />
                    </span>
                    <div>
                      Item 2
                    </div>
                  </li>
                </ul>
              </div>
            </div>
          </div>
        }
      >
        <div
          className="sheet__overlay is-entering"
          onClick={[MockFunction]}
        >
          <div
            className="sheet__component is-entering"
          >
            <ul>
              <li
                className="sheet__item"
                key="item-1"
                onClick={[Function]}
                role="button"
              >
                <div>
                  Item 1
                </div>
              </li>
              <li
                className="sheet__item"
                key="item-2"
                onClick={[Function]}
                role="button"
              >
                <span
                  className="sheet__icon"
                >
                  <img
                    alt="Item 2"
                    src="item-2-src"
                  />
                </span>
                <div>
                  Item 2
                </div>
              </li>
            </ul>
          </div>
        </div>
      </Portal>
    </Portal>
  </Transition>
</Sheet>
`;

exports[`renders icons correctly 1`] = `
<Sheet
  handleClose={[MockFunction]}
  isOpen={true}
  items={
    Array [
      Object {
        "callback": [MockFunction],
        "id": "item-1",
        "label": "Item 1",
      },
      Object {
        "callback": [Function],
        "icon": "item-2-src",
        "id": "item-2",
        "label": "Item 2",
      },
    ]
  }
>
  <Transition
    appear={true}
    enter={true}
    exit={true}
    in={true}
    mountOnEnter={false}
    onEnter={[Function]}
    onEntered={[Function]}
    onEntering={[Function]}
    onExit={[Function]}
    onExited={[Function]}
    onExiting={[Function]}
    timeout={160}
    unmountOnExit={true}
  >
    <Portal>
      <Portal
        containerInfo={
          <div>
            <div
              class="sheet__overlay is-entering"
            >
              <div
                class="sheet__component is-entering"
              >
                <ul>
                  <li
                    class="sheet__item"
                    role="button"
                  >
                    <div>
                      Item 1
                    </div>
                  </li>
                  <li
                    class="sheet__item"
                    role="button"
                  >
                    <span
                      class="sheet__icon"
                    >
                      <img
                        alt="Item 2"
                        src="item-2-src"
                      />
                    </span>
                    <div>
                      Item 2
                    </div>
                  </li>
                </ul>
              </div>
            </div>
          </div>
        }
      >
        <div
          className="sheet__overlay is-entering"
          onClick={[MockFunction]}
        >
          <div
            className="sheet__component is-entering"
          >
            <ul>
              <li
                className="sheet__item"
                key="item-1"
                onClick={[Function]}
                role="button"
              >
                <div>
                  Item 1
                </div>
              </li>
              <li
                className="sheet__item"
                key="item-2"
                onClick={[Function]}
                role="button"
              >
                <span
                  className="sheet__icon"
                >
                  <img
                    alt="Item 2"
                    src="item-2-src"
                  />
                </span>
                <div>
                  Item 2
                </div>
              </li>
            </ul>
          </div>
        </div>
      </Portal>
    </Portal>
  </Transition>
</Sheet>
`;
