// Jest Snapshot v1, https://goo.gl/fbAQLP

exports[`renders a error message with bad credentials 1`] = `
<form
  onSubmit={[Function]}
>
  <div
    className="field"
  >
    <label
      className="label"
      htmlFor="email"
    >
      Email
    </label>
    <input
      className="is-danger"
      id="email"
      name="email"
      onChange={[Function]}
      placeholder="Email address"
      required={true}
      type="email"
      value=""
    />
    <p
      className="help is-danger"
    >
      These credentials do not match our records.
    </p>
  </div>
  <div
    className="field"
  >
    <label
      className="label"
      htmlFor="password"
    >
      Password
    </label>
    <input
      className=""
      id="password"
      name="password"
      onChange={[Function]}
      placeholder="Password"
      required={true}
      type="password"
      value="bad password"
    />
  </div>
  <div
    className="login__submit-field field"
  >
    <LoadingButton
      loading={false}
      type="submit"
      value="Log in"
    />
    <a
      href="undefined/password/reset"
      target="_blank"
    >
      Forgot password?
    </a>
  </div>
</form>
`;

exports[`renders correctly 1`] = `
<form
  onSubmit={[Function]}
>
  <div
    className="field"
  >
    <label
      className="label"
      htmlFor="email"
    >
      Email
    </label>
    <input
      className=""
      id="email"
      name="email"
      onChange={[Function]}
      placeholder="Email address"
      required={true}
      type="email"
      value=""
    />
  </div>
  <div
    className="field"
  >
    <label
      className="label"
      htmlFor="password"
    >
      Password
    </label>
    <input
      className=""
      id="password"
      name="password"
      onChange={[Function]}
      placeholder="Password"
      required={true}
      type="password"
      value=""
    />
  </div>
  <div
    className="login__submit-field field"
  >
    <LoadingButton
      loading={false}
      type="submit"
      value="Log in"
    />
    <a
      href="undefined/password/reset"
      target="_blank"
    >
      Forgot password?
    </a>
  </div>
</form>
`;
